EESchema Schematic File Version 4
EELAYER 30 0
EELAYER END
$Descr A4 11693 8268
encoding utf-8
Sheet 3 4
Title ""
Date ""
Rev ""
Comp ""
Comment1 ""
Comment2 ""
Comment3 ""
Comment4 ""
$EndDescr
Text GLabel 2000 2000 0    50   Input ~ 0
addon_in_2
Text GLabel 2000 1500 0    50   Input ~ 0
addon_in_1
$Comp
L power:GND #PWR011
U 1 1 60BD1DA5
P 2000 2550
F 0 "#PWR011" H 2000 2300 50  0001 C CNN
F 1 "GND" H 2005 2377 50  0000 C CNN
F 2 "" H 2000 2550 50  0001 C CNN
F 3 "" H 2000 2550 50  0001 C CNN
	1    2000 2550
	1    0    0    -1  
$EndComp
$Comp
L Connector:Screw_Terminal_01x03 J3
U 1 1 60BD249D
P 3000 2000
F 0 "J3" H 3080 2042 50  0000 L CNN
F 1 "re-input" H 3080 1951 50  0000 L CNN
F 2 "" H 3000 2000 50  0001 C CNN
F 3 "~" H 3000 2000 50  0001 C CNN
	1    3000 2000
	1    0    0    -1  
$EndComp
Wire Wire Line
	2000 1500 2500 1500
Wire Wire Line
	2500 1500 2500 1900
Wire Wire Line
	2500 1900 2800 1900
Wire Wire Line
	2800 2000 2000 2000
Wire Wire Line
	2000 2500 2500 2500
Wire Wire Line
	2500 2500 2500 2100
Wire Wire Line
	2500 2100 2800 2100
Wire Wire Line
	2000 2500 2000 2550
$Comp
L Switch:SW_DP3T SW3
U 1 1 60BD43A8
P 3600 4100
F 0 "SW3" H 3600 3775 50  0000 C CNN
F 1 "SW_DP3T" H 3600 3866 50  0000 C CNN
F 2 "" H 2975 4275 50  0001 C CNN
F 3 "~" H 2975 4275 50  0001 C CNN
	1    3600 4100
	-1   0    0    1   
$EndComp
NoConn ~ 3400 4100
Text Notes 3100 4150 0    50   ~ 0
OFF\n
Text GLabel 3050 4200 0    50   Input ~ 0
addon_in_2
Text GLabel 3050 4000 0    50   Input ~ 0
addon_in_1
Wire Wire Line
	3050 4000 3400 4000
Wire Wire Line
	3050 4200 3400 4200
$Comp
L Device:R_US R5
U 1 1 60BDBA6D
P 4150 4100
F 0 "R5" V 4355 4100 50  0000 C CNN
F 1 "5 to 10r" V 4264 4100 50  0000 C CNN
F 2 "" V 4190 4090 50  0001 C CNN
F 3 "~" H 4150 4100 50  0001 C CNN
	1    4150 4100
	0    -1   -1   0   
$EndComp
Wire Wire Line
	4000 4100 3800 4100
$Comp
L Device:R_Potentiometer_US RV5
U 1 1 60BDCF04
P 4500 4350
F 0 "RV5" H 4432 4396 50  0000 R CNN
F 1 "5k" H 4432 4305 50  0000 R CNN
F 2 "" H 4500 4350 50  0001 C CNN
F 3 "~" H 4500 4350 50  0001 C CNN
	1    4500 4350
	1    0    0    -1  
$EndComp
Wire Wire Line
	4300 4100 4500 4100
Wire Wire Line
	4500 4100 4500 4200
$Comp
L Switch:SW_SPDT SW4
U 1 1 60BDE206
P 5200 4350
F 0 "SW4" H 5200 4635 50  0000 C CNN
F 1 "SW_SPDT" H 5200 4544 50  0000 C CNN
F 2 "" H 5200 4350 50  0001 C CNN
F 3 "~" H 5200 4350 50  0001 C CNN
	1    5200 4350
	1    0    0    -1  
$EndComp
Wire Wire Line
	5000 4350 4800 4350
NoConn ~ 5400 4450
Text Notes 5250 4600 0    50   ~ 0
DC
Text Notes 5300 4000 0    50   ~ 0
AC-coupling
$Comp
L power:GND #PWR012
U 1 1 60BDEC4C
P 4500 5200
F 0 "#PWR012" H 4500 4950 50  0001 C CNN
F 1 "GND" H 4505 5027 50  0000 C CNN
F 2 "" H 4500 5200 50  0001 C CNN
F 3 "" H 4500 5200 50  0001 C CNN
	1    4500 5200
	1    0    0    -1  
$EndComp
Wire Wire Line
	4500 4500 4500 4750
$Comp
L Connector:Conn_Coaxial J4
U 1 1 60BDF213
P 6950 4250
F 0 "J4" H 7050 4225 50  0000 L CNN
F 1 "Conn_Coaxial" H 7050 4134 50  0000 L CNN
F 2 "" H 6950 4250 50  0001 C CNN
F 3 " ~" H 6950 4250 50  0001 C CNN
	1    6950 4250
	1    0    0    -1  
$EndComp
$Comp
L power:GND #PWR013
U 1 1 60BDF448
P 6950 4750
F 0 "#PWR013" H 6950 4500 50  0001 C CNN
F 1 "GND" H 6955 4577 50  0000 C CNN
F 2 "" H 6950 4750 50  0001 C CNN
F 3 "" H 6950 4750 50  0001 C CNN
	1    6950 4750
	1    0    0    -1  
$EndComp
Wire Wire Line
	6950 4450 6950 4750
$Comp
L Device:R_US R6
U 1 1 60BDFC84
P 6400 4250
F 0 "R6" V 6600 4250 50  0000 C CNN
F 1 "10 to 50r" V 6500 4250 50  0000 C CNN
F 2 "" V 6440 4240 50  0001 C CNN
F 3 "~" H 6400 4250 50  0001 C CNN
	1    6400 4250
	0    1    1    0   
$EndComp
Wire Wire Line
	6750 4250 6550 4250
$Comp
L Device:C_Small C9
U 1 1 60BE11CD
P 5450 3650
F 0 "C9" V 5221 3650 50  0000 C CNN
F 1 "0.68 ou 1µf " V 5312 3650 50  0000 C CNN
F 2 "" H 5450 3650 50  0001 C CNN
F 3 "~" H 5450 3650 50  0001 C CNN
	1    5450 3650
	0    1    1    0   
$EndComp
Wire Wire Line
	5400 4250 6000 4250
Wire Wire Line
	5550 3650 6000 3650
Wire Wire Line
	6000 3650 6000 4250
Connection ~ 6000 4250
Wire Wire Line
	6000 4250 6250 4250
Wire Wire Line
	5350 3650 4800 3650
Wire Wire Line
	4800 3650 4800 4350
Connection ~ 4800 4350
Wire Wire Line
	4800 4350 4650 4350
Text Notes 7250 6800 0    50   ~ 0
several compromises depending on use or type of load
$Comp
L Device:R_US R7
U 1 1 60BE6CCB
P 4500 4900
F 0 "R7" H 4568 4946 50  0000 L CNN
F 1 "5 to 10r" H 4568 4855 50  0000 L CNN
F 2 "" V 4540 4890 50  0001 C CNN
F 3 "~" H 4500 4900 50  0001 C CNN
	1    4500 4900
	1    0    0    -1  
$EndComp
Wire Wire Line
	4500 5050 4500 5200
$EndSCHEMATC
