EESchema Schematic File Version 4
EELAYER 30 0
EELAYER END
$Descr A4 11693 8268
encoding utf-8
Sheet 2 4
Title ""
Date ""
Rev ""
Comp ""
Comment1 ""
Comment2 ""
Comment3 ""
Comment4 ""
$EndDescr
$Comp
L eec:XR2206CP-F U1
U 1 1 60A8E81F
P 5650 3200
F 0 "U1" H 6250 3465 50  0000 C CNN
F 1 "XR2206CP-F" H 6250 3374 50  0000 C CNN
F 2 "Exar-PDIP16-0-0-*" H 5650 3600 50  0001 L CNN
F 3 "https://eu.mouser.com/datasheet/2/146/exar_xr2206-1166154.pdf" H 5650 3700 50  0001 L CNN
F 4 "IC" H 5650 3800 50  0001 L CNN "category"
F 5 "Integrated Circuits (ICs)" H 5650 3900 50  0001 L CNN "device class L1"
F 6 "Clock and Timing" H 5650 4000 50  0001 L CNN "device class L2"
F 7 "Clock Generators" H 5650 4100 50  0001 L CNN "device class L3"
F 8 "IC FUNCTION GENERATOR 16DIP" H 5650 4200 50  0001 L CNN "digikey description"
F 9 "1016-1305-5-ND" H 5650 4300 50  0001 L CNN "digikey part number"
F 10 "5.08mm" H 5650 4400 50  0001 L CNN "height"
F 11 "DIP794W46P254L2134H450Q16" H 5650 4500 50  0001 L CNN "ipc land pattern name"
F 12 "yes" H 5650 4600 50  0001 L CNN "lead free"
F 13 "0c4669184d2d6e19" H 5650 4700 50  0001 L CNN "library id"
F 14 "Exar" H 5650 4800 50  0001 L CNN "manufacturer"
F 15 "1MHz" H 5650 4900 50  0001 L CNN "max frequency"
F 16 "26V" H 5650 5000 50  0001 L CNN "max supply voltage"
F 17 "10V" H 5650 5100 50  0001 L CNN "min supply voltage"
F 18 "701-XR2206CP-F" H 5650 5200 50  0001 L CNN "mouser part number"
F 19 "14mA" H 5650 5300 50  0001 L CNN "nominal supply current"
F 20 "2" H 5650 5400 50  0001 L CNN "number of outputs"
F 21 "true" H 5650 5500 50  0001 L CNN "obsolete part"
F 22 "DIP16" H 5650 5600 50  0001 L CNN "package"
F 23 "yes" H 5650 5700 50  0001 L CNN "rohs"
F 24 "0.38mm" H 5650 5800 50  0001 L CNN "standoff height"
F 25 "+70°C" H 5650 5900 50  0001 L CNN "temperature range high"
F 26 "0°C" H 5650 6000 50  0001 L CNN "temperature range low"
	1    5650 3200
	1    0    0    -1  
$EndComp
$Comp
L power:GND #PWR03
U 1 1 60A8EEF7
P 6950 4600
F 0 "#PWR03" H 6950 4350 50  0001 C CNN
F 1 "GND" H 6955 4427 50  0000 C CNN
F 2 "" H 6950 4600 50  0001 C CNN
F 3 "" H 6950 4600 50  0001 C CNN
	1    6950 4600
	1    0    0    -1  
$EndComp
$Comp
L power:VCC #PWR01
U 1 1 60A8F56C
P 5450 3100
F 0 "#PWR01" H 5450 2950 50  0001 C CNN
F 1 "VCC" H 5465 3273 50  0000 C CNN
F 2 "" H 5450 3100 50  0001 C CNN
F 3 "" H 5450 3100 50  0001 C CNN
	1    5450 3100
	1    0    0    -1  
$EndComp
Wire Wire Line
	5450 3100 5450 3200
Wire Wire Line
	6950 4600 6950 4500
Wire Wire Line
	6950 4500 6850 4500
NoConn ~ 5650 3600
NoConn ~ 5650 3900
NoConn ~ 5650 3800
NoConn ~ 6850 3300
$Comp
L power:GND #PWR02
U 1 1 60A90133
P 5450 3600
F 0 "#PWR02" H 5450 3350 50  0001 C CNN
F 1 "GND" H 5455 3427 50  0000 C CNN
F 2 "" H 5450 3600 50  0001 C CNN
F 3 "" H 5450 3600 50  0001 C CNN
	1    5450 3600
	1    0    0    -1  
$EndComp
Wire Wire Line
	5650 3400 5450 3400
Wire Wire Line
	5450 3400 5450 3600
Wire Wire Line
	5450 3200 5650 3200
$Comp
L Device:C_Polarized_Small C1
U 1 1 60A917FA
P 7050 4300
F 0 "C1" H 7138 4346 50  0000 L CNN
F 1 "10µF" H 7138 4255 50  0000 L CNN
F 2 "" H 7050 4300 50  0001 C CNN
F 3 "~" H 7050 4300 50  0001 C CNN
	1    7050 4300
	1    0    0    -1  
$EndComp
Wire Wire Line
	6850 4100 7050 4100
Wire Wire Line
	7050 4100 7050 4200
Wire Wire Line
	7050 4400 7050 4500
Wire Wire Line
	7050 4500 6950 4500
Connection ~ 6950 4500
$Comp
L Connector:Screw_Terminal_01x03 J1
U 1 1 60A93448
P 3750 6500
F 0 "J1" H 3830 6542 50  0000 L CNN
F 1 "OUTPUT" H 3830 6451 50  0000 L CNN
F 2 "" H 3750 6500 50  0001 C CNN
F 3 "~" H 3750 6500 50  0001 C CNN
	1    3750 6500
	1    0    0    -1  
$EndComp
Text GLabel 7750 3900 2    50   Input ~ 0
out_2
Text GLabel 2750 6500 0    50   Input ~ 0
out_2
Wire Wire Line
	2750 6500 2900 6500
Wire Wire Line
	7750 3900 6850 3900
$Comp
L power:VCC #PWR04
U 1 1 60AA1201
P 1500 6500
F 0 "#PWR04" H 1500 6350 50  0001 C CNN
F 1 "VCC" H 1515 6673 50  0000 C CNN
F 2 "" H 1500 6500 50  0001 C CNN
F 3 "" H 1500 6500 50  0001 C CNN
	1    1500 6500
	1    0    0    -1  
$EndComp
$Comp
L Device:R_US R1
U 1 1 60AAD48D
P 2000 6700
F 0 "R1" V 1795 6700 50  0000 C CNN
F 1 "10k" V 1886 6700 50  0000 C CNN
F 2 "" V 2040 6690 50  0001 C CNN
F 3 "~" H 2000 6700 50  0001 C CNN
	1    2000 6700
	0    1    1    0   
$EndComp
Wire Wire Line
	1500 6500 1500 6700
Wire Wire Line
	1500 6700 1850 6700
Wire Wire Line
	2150 6700 2900 6700
Wire Wire Line
	2900 6700 2900 6500
Connection ~ 2900 6500
Wire Wire Line
	2900 6500 3550 6500
$Comp
L power:GND #PWR05
U 1 1 60AB009D
P 3350 6950
F 0 "#PWR05" H 3350 6700 50  0001 C CNN
F 1 "GND" H 3355 6777 50  0000 C CNN
F 2 "" H 3350 6950 50  0001 C CNN
F 3 "" H 3350 6950 50  0001 C CNN
	1    3350 6950
	1    0    0    -1  
$EndComp
Wire Wire Line
	3550 6600 3350 6600
Wire Wire Line
	3350 6600 3350 6750
Text GLabel 7750 3700 2    50   Input ~ 0
out_1
Wire Wire Line
	6850 3700 7750 3700
Text GLabel 2750 6250 0    50   Input ~ 0
out_1
Wire Wire Line
	3550 6400 3200 6400
Wire Wire Line
	3200 6400 3200 6250
Wire Wire Line
	3200 6250 2750 6250
$Comp
L Connector:Screw_Terminal_01x02 power1
U 1 1 60AB3882
P 4500 1500
F 0 "power1" H 4418 1175 50  0000 C CNN
F 1 "power" H 4418 1266 50  0000 C CNN
F 2 "" H 4500 1500 50  0001 C CNN
F 3 "~" H 4500 1500 50  0001 C CNN
	1    4500 1500
	-1   0    0    1   
$EndComp
$Comp
L power:VCC #PWR06
U 1 1 60AB6971
P 5200 1150
F 0 "#PWR06" H 5200 1000 50  0001 C CNN
F 1 "VCC" H 5215 1323 50  0000 C CNN
F 2 "" H 5200 1150 50  0001 C CNN
F 3 "" H 5200 1150 50  0001 C CNN
	1    5200 1150
	1    0    0    -1  
$EndComp
$Comp
L power:GND #PWR07
U 1 1 60AB70BC
P 5200 1750
F 0 "#PWR07" H 5200 1500 50  0001 C CNN
F 1 "GND" H 5205 1577 50  0000 C CNN
F 2 "" H 5200 1750 50  0001 C CNN
F 3 "" H 5200 1750 50  0001 C CNN
	1    5200 1750
	1    0    0    -1  
$EndComp
$Comp
L Device:C_Small C2
U 1 1 60AB78A9
P 5200 1450
F 0 "C2" H 5292 1496 50  0000 L CNN
F 1 "100nF" H 5292 1405 50  0000 L CNN
F 2 "" H 5200 1450 50  0001 C CNN
F 3 "~" H 5200 1450 50  0001 C CNN
	1    5200 1450
	1    0    0    -1  
$EndComp
Wire Wire Line
	5200 1150 5200 1250
Wire Wire Line
	5200 1550 5200 1600
Wire Wire Line
	4700 1400 4900 1400
Wire Wire Line
	4900 1400 4900 1300
Wire Wire Line
	4900 1300 5200 1300
Connection ~ 5200 1300
Wire Wire Line
	5200 1300 5200 1350
Wire Wire Line
	5200 1600 4900 1600
Wire Wire Line
	4900 1600 4900 1500
Wire Wire Line
	4900 1500 4700 1500
Connection ~ 5200 1600
Wire Wire Line
	5200 1600 5200 1650
$Comp
L Device:C_Polarized_Small C3
U 1 1 60AB9FD6
P 5800 1450
F 0 "C3" H 5888 1496 50  0000 L CNN
F 1 "100µF" H 5888 1405 50  0000 L CNN
F 2 "" H 5800 1450 50  0001 C CNN
F 3 "~" H 5800 1450 50  0001 C CNN
	1    5800 1450
	1    0    0    -1  
$EndComp
Wire Wire Line
	5200 1250 5550 1250
Wire Wire Line
	5800 1250 5800 1350
Connection ~ 5200 1250
Wire Wire Line
	5200 1250 5200 1300
Wire Wire Line
	5800 1550 5800 1650
Wire Wire Line
	5800 1650 5550 1650
Connection ~ 5200 1650
Wire Wire Line
	5200 1650 5200 1750
$Comp
L Device:R_Potentiometer_US RV1
U 1 1 60ABB77F
P 8950 3500
F 0 "RV1" H 8882 3454 50  0000 R CNN
F 1 "50k" H 8882 3545 50  0000 R CNN
F 2 "" H 8950 3500 50  0001 C CNN
F 3 "~" H 8950 3500 50  0001 C CNN
	1    8950 3500
	-1   0    0    1   
$EndComp
$Comp
L Device:R_US R2
U 1 1 60ABBB0A
P 9700 2950
F 0 "R2" H 9768 2996 50  0000 L CNN
F 1 "5.1k" H 9768 2905 50  0000 L CNN
F 2 "" V 9740 2940 50  0001 C CNN
F 3 "~" H 9700 2950 50  0001 C CNN
	1    9700 2950
	-1   0    0    -1  
$EndComp
$Comp
L Device:R_US R3
U 1 1 60ABCB15
P 9700 3450
F 0 "R3" H 9768 3496 50  0000 L CNN
F 1 "5.1k" H 9768 3405 50  0000 L CNN
F 2 "" V 9740 3440 50  0001 C CNN
F 3 "~" H 9700 3450 50  0001 C CNN
	1    9700 3450
	-1   0    0    -1  
$EndComp
$Comp
L power:VCC #PWR08
U 1 1 60ABE71D
P 9700 2600
F 0 "#PWR08" H 9700 2450 50  0001 C CNN
F 1 "VCC" H 9715 2773 50  0000 C CNN
F 2 "" H 9700 2600 50  0001 C CNN
F 3 "" H 9700 2600 50  0001 C CNN
	1    9700 2600
	-1   0    0    -1  
$EndComp
$Comp
L power:GND #PWR09
U 1 1 60ABFFB4
P 9700 3800
F 0 "#PWR09" H 9700 3550 50  0001 C CNN
F 1 "GND" H 9705 3627 50  0000 C CNN
F 2 "" H 9700 3800 50  0001 C CNN
F 3 "" H 9700 3800 50  0001 C CNN
	1    9700 3800
	-1   0    0    -1  
$EndComp
Wire Wire Line
	9700 2600 9700 2800
Wire Wire Line
	9700 3600 9700 3800
$Comp
L Device:R_US R4
U 1 1 60AEFDC8
P 7450 2500
F 0 "R4" V 7245 2500 50  0000 C CNN
F 1 "5.1k" V 7336 2500 50  0000 C CNN
F 2 "" V 7490 2490 50  0001 C CNN
F 3 "~" H 7450 2500 50  0001 C CNN
	1    7450 2500
	0    1    1    0   
$EndComp
$Comp
L Device:R_Potentiometer_US RV2
U 1 1 60AF111C
P 7950 2500
F 0 "RV2" V 7745 2500 50  0000 C CNN
F 1 "5K-10k" V 7836 2500 50  0000 C CNN
F 2 "" H 7950 2500 50  0001 C CNN
F 3 "~" H 7950 2500 50  0001 C CNN
	1    7950 2500
	0    1    1    0   
$EndComp
$Comp
L Device:R_Potentiometer_US RV3
U 1 1 60AF204B
P 8450 2500
F 0 "RV3" V 8245 2500 50  0000 C CNN
F 1 "100k" V 8336 2500 50  0000 C CNN
F 2 "" H 8450 2500 50  0001 C CNN
F 3 "~" H 8450 2500 50  0001 C CNN
	1    8450 2500
	0    1    1    0   
$EndComp
$Comp
L power:GND #PWR010
U 1 1 60AF2C75
P 8950 2700
F 0 "#PWR010" H 8950 2450 50  0001 C CNN
F 1 "GND" H 8955 2527 50  0000 C CNN
F 2 "" H 8950 2700 50  0001 C CNN
F 3 "" H 8950 2700 50  0001 C CNN
	1    8950 2700
	1    0    0    -1  
$EndComp
Wire Wire Line
	8950 2700 8950 2500
Wire Wire Line
	8950 2500 8600 2500
Wire Wire Line
	8300 2500 8200 2500
Wire Wire Line
	7800 2500 7700 2500
Wire Wire Line
	7700 2500 7700 2750
Wire Wire Line
	7700 2750 7950 2750
Wire Wire Line
	7950 2750 7950 2650
Connection ~ 7700 2500
Wire Wire Line
	7700 2500 7600 2500
Wire Wire Line
	8200 2500 8200 2750
Wire Wire Line
	8200 2750 8450 2750
Wire Wire Line
	8450 2750 8450 2650
Connection ~ 8200 2500
Wire Wire Line
	8200 2500 8100 2500
Wire Wire Line
	7300 2500 7050 2500
Wire Wire Line
	7050 2500 7050 3200
Wire Wire Line
	7050 3200 6850 3200
Wire Wire Line
	4900 4500 4900 4400
Wire Wire Line
	4900 4400 5650 4400
$Comp
L Switch:SW_SPST SW1
U 1 1 60B0E853
P 5300 4900
F 0 "SW1" V 5254 4998 50  0000 L CNN
F 1 "sin-tri" V 5345 4998 50  0000 L CNN
F 2 "" H 5300 4900 50  0001 C CNN
F 3 "~" H 5300 4900 50  0001 C CNN
	1    5300 4900
	0    1    1    0   
$EndComp
Wire Wire Line
	4900 4800 4900 4900
Wire Wire Line
	4900 5150 5300 5150
Wire Wire Line
	5300 5150 5300 5100
Wire Wire Line
	5300 4700 5300 4500
Wire Wire Line
	5300 4500 5650 4500
$Comp
L Switch:SW_DIP_x04 SW2
U 1 1 60B1A24E
P 3450 3600
F 0 "SW2" H 3450 3233 50  0000 C CNN
F 1 "4position_SW" H 3450 3324 50  0000 C CNN
F 2 "" H 3450 3600 50  0001 C CNN
F 3 "~" H 3450 3600 50  0001 C CNN
	1    3450 3600
	-1   0    0    1   
$EndComp
Wire Wire Line
	3750 3500 3900 3500
Wire Wire Line
	3900 3500 3900 3600
Wire Wire Line
	3900 4100 5650 4100
Wire Wire Line
	3750 3600 3900 3600
Connection ~ 3900 3600
Wire Wire Line
	3900 3600 3900 3700
Wire Wire Line
	3750 3700 3900 3700
Connection ~ 3900 3700
Wire Wire Line
	3900 3700 3900 3800
Wire Wire Line
	3750 3800 3900 3800
Connection ~ 3900 3800
Wire Wire Line
	3900 3800 3900 4100
$Comp
L Device:C_Polarized_Small C4
U 1 1 60B23231
P 2400 2900
F 0 "C4" V 2175 2900 50  0000 C CNN
F 1 "10µF" V 2266 2900 50  0000 C CNN
F 2 "" H 2400 2900 50  0001 C CNN
F 3 "~" H 2400 2900 50  0001 C CNN
	1    2400 2900
	0    1    1    0   
$EndComp
$Comp
L Device:C_Small C5
U 1 1 60B24392
P 2400 3300
F 0 "C5" V 2171 3300 50  0000 C CNN
F 1 "105" V 2262 3300 50  0000 C CNN
F 2 "" H 2400 3300 50  0001 C CNN
F 3 "~" H 2400 3300 50  0001 C CNN
	1    2400 3300
	0    1    1    0   
$EndComp
$Comp
L Device:C_Small C6
U 1 1 60B25184
P 2400 3700
F 0 "C6" V 2171 3700 50  0000 C CNN
F 1 "473" V 2262 3700 50  0000 C CNN
F 2 "" H 2400 3700 50  0001 C CNN
F 3 "~" H 2400 3700 50  0001 C CNN
	1    2400 3700
	0    1    1    0   
$EndComp
$Comp
L Device:C_Small C7
U 1 1 60B254C9
P 2400 4100
F 0 "C7" V 2171 4100 50  0000 C CNN
F 1 "222" V 2262 4100 50  0000 C CNN
F 2 "" H 2400 4100 50  0001 C CNN
F 3 "~" H 2400 4100 50  0001 C CNN
	1    2400 4100
	0    1    1    0   
$EndComp
$Comp
L Device:C_Small C8
U 1 1 60B25903
P 2400 4500
F 0 "C8" V 2171 4500 50  0000 C CNN
F 1 "101" V 2262 4500 50  0000 C CNN
F 2 "" H 2400 4500 50  0001 C CNN
F 3 "~" H 2400 4500 50  0001 C CNN
	1    2400 4500
	0    1    1    0   
$EndComp
Wire Wire Line
	2300 2900 2200 2900
Wire Wire Line
	2200 2900 2200 3300
Wire Wire Line
	2200 4500 2300 4500
Wire Wire Line
	2300 4100 2200 4100
Connection ~ 2200 4100
Wire Wire Line
	2200 4100 2200 4500
Wire Wire Line
	2300 3700 2200 3700
Connection ~ 2200 3700
Wire Wire Line
	2200 3700 2200 4100
Wire Wire Line
	2300 3300 2200 3300
Connection ~ 2200 3300
Wire Wire Line
	2200 3300 2200 3700
Wire Wire Line
	2200 4500 2200 4750
Wire Wire Line
	2200 4750 3900 4750
Wire Wire Line
	3900 4750 3900 4200
Wire Wire Line
	3900 4200 5650 4200
Connection ~ 2200 4500
Wire Wire Line
	3150 3800 2800 3800
Wire Wire Line
	2800 3800 2800 4100
Wire Wire Line
	2800 4500 2500 4500
Wire Wire Line
	2500 4100 2800 4100
Connection ~ 2800 4100
Wire Wire Line
	2800 4100 2800 4500
Wire Wire Line
	2500 3700 3150 3700
Wire Wire Line
	3150 3600 2800 3600
Wire Wire Line
	2800 3600 2800 3300
Wire Wire Line
	2800 3300 2500 3300
Wire Wire Line
	3150 3500 3000 3500
Wire Wire Line
	3000 3500 3000 2900
Wire Wire Line
	3000 2900 2500 2900
Text Notes 8000 2200 0    50   ~ 0
fine & coarse adjustements
Text Notes 8750 3950 0    50   ~ 0
Amplitude
Text Notes 5400 5100 0    50   ~ 0
select sinus closed / triangle open
Text Notes 3250 3050 0    50   ~ 0
Set freqencies
$Comp
L Connector:Screw_Terminal_01x03 J2
U 1 1 60B6969B
P 4550 6500
F 0 "J2" H 4468 6817 50  0000 C CNN
F 1 "OUTPUT" H 4468 6726 50  0000 C CNN
F 2 "" H 4550 6500 50  0001 C CNN
F 3 "~" H 4550 6500 50  0001 C CNN
	1    4550 6500
	-1   0    0    -1  
$EndComp
Wire Wire Line
	3200 6250 3200 6100
Wire Wire Line
	3200 6100 5000 6100
Wire Wire Line
	5000 6100 5000 6300
Wire Wire Line
	5000 6400 4750 6400
Connection ~ 3200 6250
Wire Wire Line
	3350 6750 5000 6750
Wire Wire Line
	5000 6750 5000 6600
Wire Wire Line
	5000 6600 4750 6600
Connection ~ 3350 6750
Wire Wire Line
	3350 6750 3350 6950
Text GLabel 5350 6750 2    50   Input ~ 0
out_2
Text GLabel 5350 6500 2    50   Input ~ 0
addon_in_2
Text GLabel 5350 6300 2    50   Input ~ 0
addon_in_1
Wire Wire Line
	5350 6750 5200 6750
Wire Wire Line
	5200 6750 5200 6500
Wire Wire Line
	5200 6500 4750 6500
Wire Wire Line
	5200 6500 5350 6500
Connection ~ 5200 6500
Wire Wire Line
	5350 6300 5000 6300
Connection ~ 5000 6300
Wire Wire Line
	5000 6300 5000 6400
$Comp
L power:PWR_FLAG #FLG0101
U 1 1 60B89B00
P 5550 1250
F 0 "#FLG0101" H 5550 1325 50  0001 C CNN
F 1 "PWR_FLAG" H 5550 1423 50  0000 C CNN
F 2 "" H 5550 1250 50  0001 C CNN
F 3 "~" H 5550 1250 50  0001 C CNN
	1    5550 1250
	1    0    0    -1  
$EndComp
Connection ~ 5550 1250
Wire Wire Line
	5550 1250 5800 1250
$Comp
L power:PWR_FLAG #FLG0102
U 1 1 60B8A11A
P 5550 1650
F 0 "#FLG0102" H 5550 1725 50  0001 C CNN
F 1 "PWR_FLAG" H 5550 1823 50  0000 C CNN
F 2 "" H 5550 1650 50  0001 C CNN
F 3 "~" H 5550 1650 50  0001 C CNN
	1    5550 1650
	-1   0    0    1   
$EndComp
Connection ~ 5550 1650
Wire Wire Line
	5550 1650 5200 1650
$Comp
L Device:R_Potentiometer_US RV4
U 1 1 60B8F47A
P 4900 4650
F 0 "RV4" H 4832 4696 50  0000 R CNN
F 1 "500r" H 4832 4605 50  0000 R CNN
F 2 "" H 4900 4650 50  0001 C CNN
F 3 "~" H 4900 4650 50  0001 C CNN
	1    4900 4650
	1    0    0    -1  
$EndComp
Wire Wire Line
	5050 4650 5100 4650
Wire Wire Line
	5100 4650 5100 4900
Wire Wire Line
	5100 4900 4900 4900
Connection ~ 4900 4900
Wire Wire Line
	4900 4900 4900 5150
Wire Wire Line
	6850 3500 8700 3500
Wire Wire Line
	9700 3100 9700 3200
Wire Wire Line
	9700 3200 8950 3200
Wire Wire Line
	8950 3200 8950 3350
Connection ~ 9700 3200
Wire Wire Line
	9700 3200 9700 3300
Wire Wire Line
	8950 3650 8950 3750
Wire Wire Line
	8950 3750 8700 3750
Wire Wire Line
	8700 3750 8700 3500
Connection ~ 8700 3500
Wire Wire Line
	8700 3500 8800 3500
$EndSCHEMATC
