M48
; DRILL file {KiCad 8.0.2+dfsg-1} date 2024-05-09T17:22:43+0200
; FORMAT={-:-/ absolute / inch / decimal}
; #@! TF.CreationDate,2024-05-09T17:22:43+02:00
; #@! TF.GenerationSoftware,Kicad,Pcbnew,8.0.2+dfsg-1
; #@! TF.FileFunction,NonPlated,1,2,NPTH
FMAT,2
INCH
; #@! TA.AperFunction,NonPlated,NPTH,ComponentDrill
T1C0.0827
%
G90
G05
T1
X3.33Y-3.185
X3.33Y-4.885
X7.38Y-3.185
X7.38Y-4.885
M30
