(kicad_sch
	(version 20231120)
	(generator "eeschema")
	(generator_version "8.0")
	(uuid "66fe5d76-9995-4800-b4f8-6672063e3a32")
	(paper "A4")
	(title_block
		(title "xr2206")
		(date "2021-05-21")
		(rev "0.0")
		(comment 1 "signal generator ")
		(comment 2 "based on xr2206")
		(comment 3 "fix proposed by electrobidouilleur")
		(comment 4 "https://www.youtube.com/watch?v=0ANx_F6nvWs")
	)
	(lib_symbols)
	(text "I will choose to use all capacitors in SMD 0603 form factor for add-ons & mainboard.\n\nI will choose to use all resistors in SMD 0805 form factor for add-ons & mainboard.\n\nI will use standard sized componants for XR2206CP itself (dip16) & for all in the power parts."
		(exclude_from_sim no)
		(at 142.24 138.43 0)
		(effects
			(font
				(size 1.27 1.27)
				(thickness 0.254)
				(bold yes)
				(italic yes)
			)
			(justify left bottom)
		)
		(uuid "417c00af-1dfd-46e6-9148-fed09732dec2")
	)
	(text "All capacitors should be 16v compliant minimum."
		(exclude_from_sim no)
		(at 50.8 82.55 0)
		(effects
			(font
				(size 1.27 1.27)
				(thickness 0.254)
				(bold yes)
				(italic yes)
			)
			(justify left bottom)
		)
		(uuid "5f7d6501-f8ab-40a1-9245-5019b8d668a8")
	)
	(text "Optionnal power input "
		(exclude_from_sim no)
		(at 64.77 144.78 0)
		(effects
			(font
				(size 1.27 1.27)
			)
			(justify left bottom)
		)
		(uuid "8d283669-a225-4b67-ad80-e31cb1739cf1")
	)
	(text "several compromises depending on use or type of load\n\nIf needed you can use a separated board for that part"
		(exclude_from_sim no)
		(at 137.16 72.39 0)
		(effects
			(font
				(size 1.27 1.27)
			)
			(justify left bottom)
		)
		(uuid "b748d293-3502-4550-acd9-5dee3b3d779e")
	)
	(text "All capacitors should be 16v compliant minimum."
		(exclude_from_sim no)
		(at 137.16 82.55 0)
		(effects
			(font
				(size 1.27 1.27)
				(thickness 0.254)
				(bold yes)
				(italic yes)
			)
			(justify left bottom)
		)
		(uuid "c40b1fad-caff-496e-9ed4-a0b8bb9a975d")
	)
	(text "Based on XR2206CP I.C. & electrobidouilleur Idea's\n\nsee the main README.md on that project's GITLAB page\n\nSee Video in comments"
		(exclude_from_sim no)
		(at 50.8 74.93 0)
		(effects
			(font
				(size 1.27 1.27)
			)
			(justify left bottom)
		)
		(uuid "d5f5ace0-2910-4717-9f2e-0bd096c29ba7")
	)
	(sheet
		(at 38.1 43.18)
		(size 78.74 58.42)
		(fields_autoplaced yes)
		(stroke
			(width 0)
			(type solid)
		)
		(fill
			(color 0 0 0 0.0000)
		)
		(uuid "00000000-0000-0000-0000-000060a7bf69")
		(property "Sheetname" "mainboard"
			(at 38.1 42.4684 0)
			(effects
				(font
					(size 1.27 1.27)
				)
				(justify left bottom)
			)
		)
		(property "Sheetfile" "mainboardwithfixes.kicad_sch"
			(at 38.1 102.1846 0)
			(effects
				(font
					(size 1.27 1.27)
				)
				(justify left top)
			)
		)
		(instances
			(project "XR2206"
				(path "/66fe5d76-9995-4800-b4f8-6672063e3a32"
					(page "2")
				)
			)
		)
	)
	(sheet
		(at 127 43.18)
		(size 78.74 58.42)
		(fields_autoplaced yes)
		(stroke
			(width 0)
			(type solid)
		)
		(fill
			(color 0 0 0 0.0000)
		)
		(uuid "00000000-0000-0000-0000-000060a7c025")
		(property "Sheetname" "add-ons"
			(at 127 42.4684 0)
			(effects
				(font
					(size 1.27 1.27)
				)
				(justify left bottom)
			)
		)
		(property "Sheetfile" "add-ons.kicad_sch"
			(at 127 102.1846 0)
			(effects
				(font
					(size 1.27 1.27)
				)
				(justify left top)
			)
		)
		(instances
			(project "XR2206"
				(path "/66fe5d76-9995-4800-b4f8-6672063e3a32"
					(page "4")
				)
			)
		)
	)
	(sheet
		(at 38.1 114.3)
		(size 78.74 60.96)
		(fields_autoplaced yes)
		(stroke
			(width 0)
			(type solid)
		)
		(fill
			(color 0 0 0 0.0000)
		)
		(uuid "00000000-0000-0000-0000-000060a7c09d")
		(property "Sheetname" "power"
			(at 38.1 113.5884 0)
			(effects
				(font
					(size 1.27 1.27)
				)
				(justify left bottom)
			)
		)
		(property "Sheetfile" "power.kicad_sch"
			(at 38.1 175.8446 0)
			(effects
				(font
					(size 1.27 1.27)
				)
				(justify left top)
			)
		)
		(instances
			(project "XR2206"
				(path "/66fe5d76-9995-4800-b4f8-6672063e3a32"
					(page "3")
				)
			)
		)
	)
	(sheet_instances
		(path "/"
			(page "1")
		)
	)
)
